<?xml version="1.0" encoding="utf-8"?>
<!-- Generator: Adobe Illustrator 16.0.0, SVG Export Plug-In . SVG Version: 6.00 Build 0)  -->
<!DOCTYPE svg PUBLIC "-//W3C//DTD SVG 1.1//EN" "http://www.w3.org/Graphics/SVG/1.1/DTD/svg11.dtd">
<svg version="1.1" id="Capa_1" xmlns="http://www.w3.org/2000/svg" xmlns:xlink="http://www.w3.org/1999/xlink" x="0px" y="0px"
	 width="190.875px" height="211.501px" viewBox="0 0 190.875 211.501" enable-background="new 0 0 190.875 211.501"
	 xml:space="preserve">
<path fill="#FFFFFF" d="M30.747,134.583l-1.803,0.878l-2.01,0.588l-0.455,0.337l-0.482,1.318l-1.099,2.024l-0.147,0.504
	l-0.414,4.829l0.318,0.945l0.456,0.263l0.789,0.198l0.801,0.057l0.559-0.158l0.662-0.403l1.266-0.282l0.44-0.338l0.195-0.482
	L30,144.104l0.042-0.7l-0.298-0.303l-0.254-0.157l-0.07-0.403l0.028-0.464l-0.062-0.317l-0.221-0.188l-0.727-0.435l-0.157-0.262
	l0.241-0.54l0.705-0.366l0.815-0.179l0.608-0.062l1.463,0.223l0.415,0.165l0.123,0.137h0.084l0.276-0.302l0.261-0.499l0.202-0.502
	l0.104-0.182l0.476-0.441l0.105-0.277l1.657-0.703l0.358-0.317l0.18-0.202l0.126-0.199l0.096-0.242l0.067-0.263l-1.428-0.339
	l-2.259-1.4l-1.506-0.041L30.747,134.583z M67.061,4.13l-0.479,0.718l0.105,0.601l0.497,0.546l0.663,0.496l0.361-0.296l0.317-0.359
	l0.787,0.379l0.442-0.863l0.154-1.36l-0.042-1.084l-0.153-0.401l-0.042-0.22V1.983L67.061,4.13z M72.076,0l-0.063,0.359l0.116,0.463
	l0.028,0.483l-0.205,0.442L70.733,2.97l-0.305,0.38l-0.122,0.42l0.248,0.457l0.518,0.221l0.7,0.083l0.577,0.136l0.251,0.485
	l-1.389-0.464L70.65,4.773l-0.537,0.6L69.99,5.732l0.02,0.263l-0.043,0.22L69.67,6.491l-0.345,0.18h-0.263L68.87,6.555L68.767,6.27
	l-0.338,0.504l-0.304,0.298l-0.2,0.387l-0.12,1.443l-0.135,0.601l-0.345,0.476l-0.624,0.346L66.618,9.4l-0.22-0.801l-0.401-0.665
	L65.34,7.397l-0.801-0.282l-0.484,0.261l-2.505,3.286l-0.595,0.318l-0.841,0.181l-0.947,0.324l-0.946,0.117l-0.775-0.401
	l-0.385,0.181l-0.416,0.083l-0.904-0.022l-0.324,0.064l-0.74,0.296l-0.282,0.063l-2.321-0.179l-0.717,0.179l-2.231,2.044
	l-1.561,0.862l-1.423-0.4L45.54,14.71l-0.282,0.463l-0.075,0.621l0.056,0.823l-0.043,0.179l-0.159,0.297v0.186l0.116,0.215
	l0.444,0.347l0.545,1.483l-0.242-0.263l-0.442-0.884l-0.378-0.336l-0.341-0.244l-0.282-0.303l-0.146-0.478l0.665-2.044l-0.016-0.305
	l-0.178-0.337l-0.871,0.601l-1.961,0.642l-0.803,0.339l-0.234,0.241l-0.428,0.621l-0.236,0.242l-1.008,0.781l-0.234,0.138
	l-0.422,0.106l-0.62,0.46l-1.045,0.181l-0.822,0.317l-0.476,0.061L35.181,19l-0.649,0.599l-0.496,0.14l-1.079,0.102l-0.481-0.062
	l-0.583-0.275l-0.967,0.76l-0.716,1.179l-0.36,1.383v1.423l0.116,0.502l0.182,0.505l0.297,0.4l0.426,0.16l0.595,0.076l0.469,0.241
	l0.298,0.401l0.22,0.946l0.241,0.56l0.182,0.662l-0.083,0.678l-0.278,0.524l-0.302,0.319l-0.222,0.38l-0.098,0.723l0.098,0.664
	l0.222,0.636l0.799,1.283l0.443,0.443l0.2,0.283l0.062,0.422l-0.081,0.276l-0.346,0.642l-0.036,0.423h-0.242l-0.159-0.506
	l-0.117-0.234l-0.165-0.166l-0.358-0.18l-0.084,0.125v0.297l-0.296,0.863l0.06,2.486l0.257,1.381l0.063,0.802l-0.568,1.725
	l-0.034,0.381l-0.145,0.242l-0.138,0.201l-0.117,0.2l-0.285,0.96l-0.179,0.359l-0.199,0.199l-0.222,0.062l-0.159,0.139l-0.063,0.4
	l-0.242,0.663l-0.558,0.685l-2.044,1.663l-1.942,2.279l-0.505,0.408l-0.736,0.436l-0.804,0.164l-0.639-0.345l-0.768,1.146
	l-0.96,1.002l-0.18,0.277l-0.103,0.346l-0.035,0.717l-0.084,0.443l-0.212,0.303l-0.622,0.497l-1.062,1.105l-0.651,0.499l-0.636,0.2
	l-0.536,0.304l0.116,0.696l1.083,1.81l0.519,1.222l0.561,0.822l0.302,0.779l0.055,0.298l0.104,0.159l0.621,0.622l0.517,1.189
	l0.402,0.456l0.766,0.164l2.362-0.02l0.462,0.242v0.234l-2.824,0.199l-0.843-0.075l-0.516-0.242l-0.402-0.399l-0.4-0.622
	l-0.07-0.339l0.07-0.283l-0.041-0.2l-0.387-0.082l-0.277,0.143l-0.302,0.318l-0.237,0.339l-0.103,0.221l-0.16,0.705l-1.202,1.685
	l-0.8,1.781l-0.104,0.539l-0.103,2.189l-0.118,0.642l-1.318,2.079l-0.366,0.38l-0.361,0.104l-0.64,0.483l-0.381,0.097l-0.381-0.063
	l-0.496-0.316l-0.346-0.063l-0.343,0.041l-0.216,0.159l-0.187,0.145l-0.178,0.097l-0.402,0.062l-2.182-0.062l-0.317,0.062
	L7.361,77.62l-0.343,0.062L6.615,77.6l-0.302-0.159l-0.277-0.097l-0.379,0.138l-0.186,0.305l-0.234,0.854l-0.141,0.18l-0.179,0.167
	l-0.282,0.338l-0.243,0.421l-0.097,0.297l-0.146,0.124l-0.578,0.317L3.39,80.631l-0.22,1.202l0.42,1.424l0.72,1.318l3.674,4.932
	l0.373,1.201l-0.076,0.461l-0.443,0.886L7.701,92.51L7.66,92.952l0.076,0.925l-0.035,0.441l-0.263,0.457l-0.297,0.242l-0.305,0.18
	L6.56,95.439l-0.144,0.344l-0.063,0.414l-0.014,0.948L6.196,97.44l-0.878,1.285l-0.122,0.36l0.041,0.482l0.158,0.422l0.463,0.583
	l0.757,1.906l0.403,0.619l0.304,0.359l0.298,0.518l0.199,0.602l0.201,1.388l1.222,3.486l0.081,0.822l-0.165,0.561l-0.699,0.38
	l-0.255,0.221l0.056,0.298l0.097,0.261l0.264,1.202l-0.162,1.707l-0.723,1.18l-3.647,2.726l-0.759,0.341l-0.719,0.125L2.43,119.17
	l-0.343-0.464l-0.16-0.117l-0.401-0.021l-0.841-0.199l-0.105-0.084l-0.076-0.158l-0.117-0.137l-0.262-0.063L0,118.063l0.062,0.326
	l0.159,0.336l0.144,0.222l1.225,0.963l0.44,0.481l0.539,0.762l0.261,0.499l0.196,1.107l0.248,0.299l0.401,0.06h0.517l0.725,0.278
	l1.382,1.222l0.621,0.262l1.94,0.103l0.905,0.204l0.858,0.378v-0.22l1.124,0.884l2.728,2.541l3.509,4.089l1.258,0.801l0.302,0.102
	l0.602,0.077l0.199,0.062l0.201,0.14l0.422,0.421l0.484,0.263l1.393,1.183l1.391,0.544l0.758,0.098l0.324-0.299l0.042-0.703
	l-0.026-0.381l-0.119-0.262l-0.904-0.92l-0.118-0.083l-0.116-0.662l0.116-0.54l0.326-0.26l0.475,0.22l0.16,0.224l0.124,0.197
	l0.18,0.141h0.316l0.305-0.182l0.241-0.298l0.256-0.442l1.062-0.461l1.023-1.097l2.253-3.13l1.422-3.648l0.297-0.401l0.379-0.261
	l0.305-0.021l0.662,0.045l0.277-0.107l0.345-0.359l0.18-0.097l0.295-0.084l-0.681,1.064l-0.235,0.257l-0.365,0.145l-0.362,0.056
	l-0.295,0.166l-0.126,0.4l-0.136,0.801l-0.624,1.402l-0.138,0.718l0.18,0.463l0.478-0.158l0.661-0.318l0.727-0.085l0.771,0.74
	l0.443,0.146l0.146-0.685l0.201,0.36l0.013,0.324l-0.139,0.275l-0.317,0.201l-0.359-0.04l-0.261-0.236l-0.2-0.285l-0.202-0.136
	l-0.885,0.095l-0.359,0.306l-0.136,0.478l-0.305,0.683l-0.982,0.66l-0.442,0.522l0.181,0.545l0.422,0.317l0.241,0.083l0.703-0.083
	l0.263,0.083l0.193,0.436l0.325,0.163l0.478-0.081l1.145-0.662l0.524-0.16l0.318-0.22l0.919-1.002l0.221-0.359l0.337-1.323
	l0.528-6.39l-0.084-0.989l-1.002-1.74l-0.201-0.94l0.043-0.966l0.277-1.298l0.281-0.801l0.062-0.266l0.242-0.279l1.085-0.063
	l0.235-0.096l0.022-0.583l0.082-0.304l0.215-0.158l1.945-1.104l-0.234,0.727l-0.545,0.359l-0.546,0.24l-0.235,0.36l-0.166,0.778
	l-0.414,0.241l-0.525,0.146l-0.495,0.535l0.262,0.403l-0.085,0.297l-0.219,0.283l-0.168,0.359l-0.015,0.379l0.085,0.221l0.098,0.18
	l0.042,0.223l0.092,0.082l0.424,0.58l0.062,0.125l0.14,0.198l-0.042,0.438l-0.194,0.723v0.421l0.221,1.519l-0.027,1.93l0.061,0.463
	l0.2,0.398l0.402,0.643l0.642,1.762l0.4,0.6l0.263,0.139l0.378,0.021l0.72-0.034l0.104,0.18l0.462,1.14l0.191,1.485l-0.033,0.781
	l-0.283,0.579l-0.979,1.002l-0.381,0.558l-0.698,1.926l-0.125,0.763l-0.345,0.704l-0.055,0.223l-0.704,1.241l-1.036,3.341
	l-0.07,0.568l-0.434,1.279l-0.119,0.766l0.339,0.559l-0.281,0.664l-1.12,1.76l-0.54,1.182l-0.163,1.265l-0.162,0.74l-0.324,0.702
	l-0.496,0.561l-1.044,0.641l-0.295,0.242l-0.262,0.357l-0.209,0.358l-0.214,0.329l-0.339,0.199l0.222-1.563l-0.145-0.786
	l-0.74-0.139l-0.359,0.463l-1.242,2.583l-0.145,0.138l-0.761,0.884l-0.323,0.117l-0.234-0.012l-0.263-0.063l-0.423-0.043
	l-2.383,0.482l-0.44,0.18l-0.905-0.904l-0.34,0.483l-0.18,1.045l-0.397,0.296l-0.211-0.675l0.125-0.224l0.318-0.926l-0.318,0.465
	l-0.157,0.461l-0.201,0.4l-0.443,0.262l-0.097,0.337l0.041,0.245l0.056,0.242l0.199,0.097l0.547,0.282l1.258,0.318l0.462,0.359
	l-0.077,0.579l-0.207,0.686l0.085,0.685l0.199,0.178l0.546,0.221l0.222,0.24l0.075,0.299v0.324l-0.064,0.619l-0.26,0.881v0.262
	l0.206,0.242l0.317,0.096l0.305,0.125l0.077,0.317l0.02,0.359l0.179,0.622l0.043,0.365l-0.062,0.336l-0.201,0.623l-0.056,0.297
	v0.326l0.015,0.262l0.22,0.623l0.022,0.318l-0.106,0.239l-0.136,0.241l-0.055,0.234l0.137,0.664l0.661,1.062l0.298,0.664
	l0.042,0.298v0.603l0.077,0.28l0.303,0.339l0.304,0.181l0.179,0.2v0.343l-0.525,0.582l-2.562,1.181l-0.476,0.58l-0.483,0.767
	l-0.539,0.677l-0.705,0.347l-0.622-0.146l-1.38-0.738l-0.684-0.199l-0.685-0.044l-0.662,0.044l-0.594,0.177l-0.504,0.34
	l-0.367,0.548l-0.37,0.779l-0.285,0.842l-0.062,0.623l0.166,0.399l0.538,0.758l0.179,0.423l0.014,0.297l-0.138,0.623v0.302
	l0.704,1.464l1.148,0.119l1.435-0.421l1.526-0.181l-0.366,0.725l-4.364,5.768l-0.125,0.565l0.285,0.677l0.442,0.403l1.484,0.839
	l0.56,0.183h0.578l0.263-0.036l0.326-0.283l1.338-0.727l2.544-1.918l0.523-0.56l0.236-0.526l0.345-1.158l0.277-0.462l0.281-0.224
	l0.339-0.158l0.367-0.118l1.339-0.186l0.082-0.014l0.215,0.34l0.546,0.177l0.685,0.118l0.557,0.2l0.603,0.505l1.064,1.159
	l0.662,0.462l0.898,0.506l0.863,0.095H35.7l0.862,0.223l0.841,0.761l0.676,1.042l0.826,0.844l1.24,0.179l2.205-0.678l1.146-0.662
	l1.182-0.157l0.919,0.432l1.67,1.646l0.255,0.123l0.464,0.357l0.201,0.105h0.8l0.683,0.379l0.18,0.318l-0.081,0.483l-0.762,1.341
	l-0.02,0.702l0.96,1.403l0.388,1.942l0.855,1.623l0.097,0.663l0.246,0.684l0.554,0.461l0.692,0.361l0.58,0.418l0.179,0.278
	l0.192,0.662l0.188,0.284l0.297,0.201l0.643,0.241l0.281,0.198l0.444,0.622l0.357,0.698l0.444,0.545l0.759,0.201l2.348-0.084
	l0.581,0.097l1.106,0.388l0.579,0.117h0.338l0.517-0.141l0.348,0.037l0.359,0.19l0.358,0.251l0.6,0.604l0.961-0.804l0.841-0.897
	l0.242-0.685l0.38-1.603l0.346-0.539l0.664-0.164l0.857-0.021l0.787-0.156l0.331-0.667l-0.153-0.778l-0.766-1.478l-0.022-0.907
	l0.387-0.902l0.622-0.844l1.5-1.383l1.359-0.757l3.024-1.205l1.273-0.842l0.295-0.515l0.033-0.646l-0.033-0.64l0.077-0.602
	l0.484-0.782l0.524-0.619l0.078-0.527l-0.781-0.483l-0.4-0.613l-0.262-1.225l-0.043-1.241l0.262-0.686l0.622-0.502l0.277-0.637
	l0.303-1.443l2.032-4.189l0.328-1.445l-0.012-1.962l0.156-0.544l0.343-0.337l0.357-0.1l0.402-0.02l0.427-0.146l0.456-0.255
	l0.138-0.125v-0.242l0.325-2.424l0.241-0.622l0.34-0.642l0.199-0.138l0.401-0.2l0.262-0.159l0.803-0.781l0.198-0.641l-0.423-2.127
	v-0.399l0.024-0.182l0.158-0.041l0.421-0.076l0.242-0.18l0.02-0.322l-0.117-0.686l-0.027-1.182l0.082-0.642l0.224-0.657l0.597-1.325
	l0.483-1.484l0.243-1.401l0.013-0.36l-0.194-0.665l-0.025-0.199l0.366-0.619l0.538-0.16l0.704,0.082l1.423,0.4l0.422,0.338
	l0.235,0.484l0.468,2.119l0.318,0.582l0.441-0.199l0.519-0.424l0.582-0.137l0.518-0.201l0.304-0.684l-0.086-0.896l-0.401-0.486
	l-0.516-0.357l-0.38-0.602v-0.724l0.38-0.456l1.201-0.885l0.423-0.581l1.001-1.946l0.481-0.496l1.585-1.329l3.349-4.442l2.422-2.111
	l0.624-0.314l2.183-0.76l4.148-1.442l4.152-1.446l4.142-1.442l4.149-1.443l4.152-1.444l4.145-1.441l4.151-1.446l4.15-1.442
	l3.045-1.042l1.969-1.182l1.858-1.421l1.968-1.508l1.961-1.498l1.988-1.483l1.962-1.506l1.962-1.499l1.99-1.507l1.961-1.504
	l1.961-1.479l1.644-1.926l1.643-1.908l1.666-1.896l1.644-1.908l1.643-1.903l1.646-1.901l1.661-1.928l1.645-1.905l1.32-1.52
	l1.802-1.684l0.788-0.928l0.441-1.138l0.476-1.906l0.983-3.847l1.002-3.868l0.979-3.868l1.009-3.866l0.399-1.624l0.221-0.283
	l0.919,0.843l0.461,0.523l0.182,0.341l0.319,0.262l0.759,0.02l1.408-0.187h1.561l0.274-0.012v-0.223l-0.232-0.325l-0.32-0.273
	l-0.247-0.368l-0.056-0.297l0.041-0.58v-0.284l-1.463-4.95v-0.422l0.221-0.58l0.057-0.338l-0.016-0.325l-0.135-0.602l-0.031-0.338
	l0.14-0.379l0.365-0.243l0.401-0.201l0.282-0.303l0.076-0.297l-0.035-0.24l-0.08-0.242l-0.043-0.276l0.095-1.285l-0.115-0.602
	l-0.36-0.581l-0.159-0.061l-0.304,0.159l-0.159-0.021l-0.144-0.159l-0.152-0.379l-0.144-0.159l-1.306-0.981l-0.118-0.2l-0.2-0.105
	l-0.399,0.043l-0.35-0.063l-0.371-0.242l-0.607-0.558l-0.939-1.305l-0.621-1.383l-1.043-3.708l-0.381-0.476l-0.538-0.326
	l-0.704-0.241l-0.4-0.2l-0.704-0.635l-0.4-0.242l-0.317-0.043l-0.704,0.043l-0.297-0.061l-0.3-0.339l-0.322-0.642l-0.16-0.728
	l0.179-0.578l0.486-0.159l0.591,0.159l0.609,0.241l0.497,0.104l0.608-0.062h0.456l0.441,0.117l2.321,1.244l0.863,0.082l0.883-0.579
	l0.283-0.042l1.117,0.158l0.525-0.02l0.444-0.138l0.414-0.222l0.745-0.524l0.401-0.497l-0.621-0.359l-2.085-0.768l-1.845-0.337
	l-0.644-0.463l-0.8-0.275l-1.919-1.169l-1.55-1.382l-0.577-0.2l-0.348-0.2l-0.413-0.484l-0.525-0.455l-0.664-0.221l-0.619,0.076
	l-1.424,0.324l-0.76,0.076l-0.747-0.055l-0.615-0.159l-0.557-0.22l-0.927-0.525l-1.33-0.961l-0.274-0.462l-2.001-1.221l-0.829-0.74
	l-0.36-0.545l-0.136-0.622l-0.18-0.422l-2.204-2.783l-0.146-0.38l-0.316-0.483l-0.744,0.082l-0.837,0.263l-0.603,0.035l-0.164-0.256
	l-0.18-0.862l-0.194-0.36l-0.282-0.124l-0.367-0.021l-0.719,0.04l-0.819-0.061l-0.698-0.158l-0.664-0.277l-0.643-0.422l-0.903-0.966
	l-0.337-0.137l-0.366,0.102l-0.596,0.456l-0.165,0.103l-0.181,0.16l-0.815,0.981l-0.324,0.102l-0.339,0.077l-0.724,0.04
	l-0.295-0.061v0.2l-0.084,2.453l0.345,2.181l-0.588,0.381l-3.267,0.379l-0.857,0.441l-0.483,0.063l-0.622-0.221l-0.882-0.822
	l-0.526-0.358l-0.475-0.146l-1.604-0.159l-1.14-0.318l-0.399,0.159l0.072,1.299l-0.503,0.02l-1.18-0.537l-0.4-0.043l-2.3,0.345
	l-0.503-0.02l-0.464-0.166l-0.58-0.421l-0.704-0.718l-0.339-0.221l-0.545-0.201l-0.413-0.061l-1.329-0.021l-0.979-0.34l-1.264-1.401
	l-1.14-0.303l-0.568,0.125l-1.653,0.62l-0.728,0.042l-0.519-0.165l-0.481-0.236l-0.625-0.241l-3.507-0.706l-1.16-0.421l-0.883-0.676
	l-0.34-0.822l-0.144-0.988l-0.299-1.097l-0.218-3.447l-0.437-1.588l-1.37-0.339l-1.116,0.139l-1.205-0.457l-2.164-1.485
	l-0.707-1.042l-0.221-2.349l-0.979-0.781h-0.814l-2.633,0.982l-0.656,0.145h-0.662l-0.728-0.16l-0.759-0.303l-0.338-0.303
	l-0.083-0.34l0.021-0.379l-0.117-0.316l-0.322-0.347l-0.161-0.021l-0.179,0.083h-0.348l-2.237-0.842l-2.343-0.083l-1.386-0.678
	l-4.309-3.224l-0.662-0.346l-1.964-0.538l-0.647-0.304l-0.775-0.581l-3.106-3.424l-0.609-0.484l-1.823-0.4l-0.498,0.04l-0.46,0.262
	l-0.203-0.524l-0.676-0.718l-0.126-0.339l-0.055-0.642l-0.323-0.082l-0.463,0.137l-0.519,0.083L77.461,5.49l-0.636-0.497
	l-0.504-0.662l-0.327-0.726l-0.327-0.539l-0.989-0.779l-0.699-0.961L72.076,0z"/>
</svg>
