<?xml version="1.0" standalone="no"?>
<!DOCTYPE svg PUBLIC "-//W3C//DTD SVG 1.1//EN" "http://www.w3.org/Graphics/SVG/1.1/DTD/svg11.dtd" >
<svg xmlns="http://www.w3.org/2000/svg">
<metadata>Generated by IcoMoon</metadata>
<defs>
<font id="icomoon" horiz-adv-x="1024">
<font-face units-per-em="1024" ascent="960" descent="-64" />
<missing-glyph horiz-adv-x="1024" />
<glyph unicode="&#x20;" horiz-adv-x="512" d="" />
<glyph unicode="&#xe900;" glyph-name="phone" horiz-adv-x="1019" d="M784.169 307.999l-4.284 4.284c-42.585 42.22-99.643 42.22-143.319-1.38-21.384-21.313-42.768-42.625-64.187-64.561-3.687 1.875-7.41 3.723-11.097 5.571-8.692 4.253-17.38 8.51-25.449 13.515-60.776 38.439-116.8 89.73-171.208 156.767-25.476 31.488-43.609 59.81-56.586 88.759 18.667 18.276 37.019 36.934 55.468 55.619l9.436 9.605c43.583 44.068 43.516 101.059-0.12 145.189l-75.159 75.801c-12.856 13.021-25.672 25.979-38.742 38.813-42.581 41.748-99.571 41.592-141.787-0.281-9.685-9.579-19.224-19.251-28.758-28.918-13.947-14.188-27.894-28.357-42.331-42.131-26.99-25.663-42.211-58.398-45.275-97.305-4.591-60.745 12.224-115.108 27.329-155.547 34.075-92.197 86.038-179.273 158.856-266.153 90.821-108.504 200.096-194.449 324.836-255.385 68.938-33.612 127.933-50.734 185.623-53.896 4.373-0.249 8.692-0.374 12.941-0.374 49.585 0 88.853 17.020 119.802 51.888 12.82 14.392 26.665 27.921 41.334 42.22 7.628 7.45 15.256 14.896 22.755 22.533 43.395 44.13 43.52 100.903 0.347 144.592-36.671 37.036-73.53 73.908-110.424 110.775zM853.7 92.985c-7.223-7.294-14.597-14.522-22.012-21.722-14.726-14.366-29.916-29.226-44.081-45.163-21.883-24.594-48.766-34.516-87.040-32.481-50.552 2.783-101.108 17.648-163.825 48.254-117.495 57.405-220.478 138.367-306.111 240.712-68.533 81.777-117.272 163.273-149.041 249.28-19.478 52.017-26.821 92.446-23.913 131.068 1.942 24.572 10.972 44.228 27.667 60.121 14.887 14.21 29.23 28.798 43.618 43.382 9.347 9.481 18.69 18.961 28.197 28.384 10.131 10.015 20.507 15.025 30.954 15.025 10.38 0 20.823-4.979 30.949-14.9 12.82-12.584 25.449-25.378 38.083-38.181l75.159-75.801c21.762-21.998 21.825-42.469 0.125-64.379l-9.507-9.672c-20.070-20.342-40.047-40.652-60.838-60.843-9.881-9.922-19.603-26.692-9.757-50.289 15.261-36.404 36.832-71.303 68.066-109.827 58.402-71.949 118.933-127.283 185.182-169.124 9.752-6.11 20.132-11.271 30.517-16.436 5.905-2.877 11.814-5.789 17.162-8.733 18.797-10.67 38.519-7.566 54.114 8.581 22.862 23.566 46.116 46.726 70.724 71.263 20.106 20.066 41.427 20.026 61.716-0.031l4.092-4.132c36.8-36.774 73.632-73.583 110.214-110.575 20.72-20.934 20.564-42.438-0.414-63.782zM511.1 709.789c65.501-9.196 124.932-38.996 171.863-86.19 44.647-45.003 73.846-101.589 84.413-163.589 2.378-13.992 14.441-23.842 28.077-23.842 1.594 0 3.224 0.12 4.845 0.401 15.537 2.694 25.984 17.501 23.325 33.118-12.54 73.739-47.185 140.963-100.235 194.449-55.842 56.118-126.526 91.547-204.38 102.466-15.573 2.227-30.045-8.759-32.232-24.439-2.155-15.697 8.724-30.183 24.323-32.374zM1018.585 482.605c-20.413 118.675-76.157 226.712-161.291 312.465-89.699 90.171-203.28 147.095-328.501 164.658-15.479 2.16-30.045-8.764-32.2-24.443-2.155-15.706 8.724-30.201 24.327-32.392 112.802-15.804 215.156-67.099 295.98-148.346 76.785-77.301 127.060-174.735 145.447-281.708 2.369-13.956 14.437-23.82 28.072-23.82 1.625 0 3.246 0.156 4.881 0.441 15.537 2.69 25.948 17.523 23.285 33.144z" />
<glyph unicode="&#xe901;" glyph-name="sobre" horiz-adv-x="1463" d="M115.645 899.487l526.833-417.358c23.825-18.705 56.903-27.172 88.735-25.662 32.029-1.51 64.845 6.695 88.932 25.662l526.833 417.358c42.071 33.341 32.619 60.513-21.002 60.513h-1189.329c-53.556 0-63.073-27.172-21.002-60.513zM1384.979 789.486l-575.795-437.113c-21.593-16.146-49.815-24.087-77.709-23.825-28.222-0.328-56.378 7.613-77.972 23.759l-575.795 437.113c-42.858 32.423-77.709 14.964-77.709-38.592v-717.102c0-53.622 43.843-97.727 97.399-97.727h1267.825c53.556 0 97.399 44.105 97.399 97.727v717.102c0 53.556-34.851 71.014-77.643 38.658z" />
<glyph unicode="&#xe902;" glyph-name="ubication" horiz-adv-x="683" d="M341.334 960c-188.208 0-341.334-153.126-341.334-341.334 0-56.5 14.126-112.52 40.98-162.208l281.686-509.458c3.75-6.792 10.896-11 18.666-11s14.916 4.208 18.666 11l281.792 509.624c26.75 49.522 40.876 105.542 40.876 162.042 0.002 188.208-153.124 341.334-341.332 341.334zM341.334 448c-94.104 0-170.666 76.562-170.666 170.666s76.562 170.668 170.666 170.668c94.104 0 170.666-76.564 170.666-170.668s-76.562-170.666-170.666-170.666z" />
<glyph unicode="&#xe903;" glyph-name="hojasLeft" horiz-adv-x="644" d="M302.425 183.63c67.269-26.479 118.957-73.396 133.050-162.898 9.366-18.776 56.24-35.582 69.019-43.372 24.378-4.245 32.65-11.773 74.49-10.854-61.667 65.912-110.16 143.685-141.978 229.773-17.682 18.644-68.232 52.563-98.912 70.595-126.703 42.103-196.248 92.916-234.762 159.747-41.403 78.21-56.415 192.834-103.332 268.069 143.991-23.459 310.215-125.128 352.144-385.669 14.924-24.684 57.115-57.334 69.982-67.706-17.288 59.741-27.266 122.371-27.266 187.32 0 44.335 4.552 88.452 12.824 128.717-63.899-1.007-122.371 35.494-163.029 125.215-46.917 150.556-89.327 249.162-126.922 277.435 225.309-14.093 385.056-122.152 319.275-399.849h-0.35c-9.016-41.009-13.655-86.132-13.655-131.518 0-69.982 11.292-137.733 31.993-201.15l0.788-0.131c0.919-2.276 1.357-4.727 2.057-7.221 35.144-103.070 112.786-221.326 186.007-278.704-73.44-10.854-103.070-2.626-153.663 0.963-57.815 9.847-207.977 40.396-260.76 79.961-69.457 47.005-109.766 149.418-186.138 234.937 107.009-45.867 179.223-40.615 259.14-73.659z" />
<glyph unicode="&#xe904;" glyph-name="hojasRight" horiz-adv-x="644" d="M341.421 183.63c-67.269-26.479-118.957-73.396-133.050-162.898-9.366-18.776-56.24-35.582-69.019-43.372-24.378-4.245-32.65-11.773-74.49-10.854 61.667 65.912 110.16 143.685 141.978 229.773 17.682 18.644 68.232 52.563 98.912 70.595 126.703 42.103 196.248 92.916 234.762 159.747 41.447 78.167 56.459 192.791 103.332 268.069-143.991-23.459-310.215-125.128-352.144-385.669-14.924-24.684-57.115-57.334-69.982-67.706 17.288 59.741 27.266 122.371 27.266 187.32 0 44.335-4.552 88.452-12.824 128.717 63.855-1.007 122.371 35.538 163.029 125.215 46.917 150.556 89.327 249.205 126.878 277.435-225.265-14.093-385.056-122.152-319.231-399.849h0.35c9.016-41.009 13.655-86.132 13.655-131.518 0-69.982-11.292-137.733-31.993-201.15l-0.788-0.131c-0.919-2.276-1.357-4.727-2.057-7.221-35.144-103.113-112.786-221.326-186.007-278.704 73.44-10.854 103.070-2.626 153.663 0.963 57.815 9.847 207.977 40.396 260.76 79.961 69.457 47.005 109.766 149.418 186.138 234.937-107.009-45.867-179.267-40.615-259.14-73.659z" />
</font></defs></svg>