<?xml version="1.0" encoding="utf-8"?>
<!-- Generator: Adobe Illustrator 16.0.0, SVG Export Plug-In . SVG Version: 6.00 Build 0)  -->
<!DOCTYPE svg PUBLIC "-//W3C//DTD SVG 1.1//EN" "http://www.w3.org/Graphics/SVG/1.1/DTD/svg11.dtd">
<svg version="1.1" id="Capa_1" xmlns="http://www.w3.org/2000/svg" xmlns:xlink="http://www.w3.org/1999/xlink" x="0px" y="0px"
	 width="409.602px" height="409.602px" viewBox="0 0 409.602 409.602" enable-background="new 0 0 409.602 409.602"
	 xml:space="preserve">
<g>
	<path fill="#0052B4" d="M389.277,293.844c13.02-26.926,20.324-57.133,20.324-89.042c0-31.914-7.305-62.121-20.324-89.043
		L204.801,97.949L20.32,115.758C7.301,142.68,0,172.887,0,204.801c0,31.91,7.301,62.117,20.32,89.042l184.481,17.809
		L389.277,293.844z M389.277,293.844"/>
	<path fill="#D80027" d="M204.801,409.602c81.195,0,151.352-47.254,184.477-115.758H20.32
		C53.449,362.348,123.605,409.602,204.801,409.602L204.801,409.602z M204.801,409.602"/>
	<path fill="#F0F0F0" d="M354.695,245l-10.82,8.453l4.695,12.898l-11.379-7.676l-10.82,8.453l3.785-13.195l-11.383-7.68
		l13.719-0.477l3.785-13.195l4.699,12.898L354.695,245z M354.695,245"/>
	<path fill="#F0F0F0" d="M326.992,197.027l-7.273,11.641l8.824,10.512l-13.32-3.316l-7.273,11.641l-0.961-13.695l-13.316-3.32
		l12.727-5.145l-0.957-13.692l8.824,10.516L326.992,197.027z M326.992,197.027"/>
	<path fill="#F0F0F0" d="M284.555,161.414l-2.852,13.43l11.887,6.863l-13.652,1.438l-2.852,13.425l-5.586-12.539l-13.652,1.434
		l10.203-9.188l-5.586-12.539l11.891,6.864L284.555,161.414z M284.555,161.414"/>
	<path fill="#F0F0F0" d="M232.496,142.469l1.914,13.593l13.52,2.383l-12.34,6.024l1.91,13.593l-9.535-9.875l-12.34,6.016
		l6.445-12.121l-9.535-9.875l13.52,2.383L232.496,142.469z M232.496,142.469"/>
	<path fill="#F0F0F0" d="M177.102,142.469l6.445,12.121l13.515-2.383l-9.531,9.875l6.442,12.121l-12.336-6.016l-9.539,9.872
		l1.914-13.59l-12.34-6.02l13.519-2.387L177.102,142.469z M177.102,142.469"/>
	<path fill="#F0F0F0" d="M125.043,161.414l10.203,9.188l11.887-6.864l-5.582,12.543l10.203,9.188l-13.652-1.438l-5.586,12.539
		l-2.852-13.425l-13.652-1.434l11.886-6.867L125.043,161.414z M125.043,161.414"/>
	<path fill="#F0F0F0" d="M82.605,197.027l12.731,5.141l8.82-10.516l-0.953,13.696l12.727,5.145l-13.321,3.32l-0.957,13.691
		l-7.273-11.641l-13.32,3.32l8.824-10.516L82.605,197.027z M82.605,197.027"/>
	<path fill="#F0F0F0" d="M54.906,245l13.723,0.48l4.691-12.898l3.789,13.195l13.719,0.48l-11.383,7.676l3.785,13.195l-10.816-8.449
		l-11.383,7.676l4.696-12.902L54.906,245z M54.906,245"/>
	<path fill="#FFDA44" d="M389.277,115.758C356.152,47.254,285.996,0,204.801,0C123.605,0,53.449,47.254,20.32,115.758H389.277z
		 M389.277,115.758"/>
</g>
</svg>
